^G:\UNIVERSITY\COURSES\GAME INFORMATICS\3\POINT AND CLICK ENGINE\POINTANDCLICKENGINE\MAIN.CPP
G:\UNIVERSITY\COURSES\GAME INFORMATICS\3\POINT AND CLICK ENGINE\POINTANDCLICKENGINE\X64\DEBUG\VC140.PDB
G:\UNIVERSITY\COURSES\GAME INFORMATICS\3\POINT AND CLICK ENGINE\POINTANDCLICKENGINE\X64\DEBUG\VC140.IDB
G:\UNIVERSITY\COURSES\GAME INFORMATICS\3\POINT AND CLICK ENGINE\POINTANDCLICKENGINE\X64\DEBUG\MAIN.OBJ
